%YAML 1.1
%TAG !u! tag:unity3d.com,2011:
--- !u!114 &11400000
MonoBehaviour:
  m_ObjectHideFlags: 0
  m_CorrespondingSourceObject: {fileID: 0}
  m_PrefabInstance: {fileID: 0}
  m_PrefabAsset: {fileID: 0}
  m_GameObject: {fileID: 0}
  m_Enabled: 1
  m_EditorHideFlags: 0
  m_Script: {fileID: 11500000, guid: 70b9a9b21d86b1241a9e33c5d6ae2f73, type: 3}
  m_Name: Level_5
  m_EditorClassIdentifier: 
  id: 5
  size: {x: 3, y: 2}
  staticNodes:
  - id: 0
    nodeId: 2
    position: {x: 2, y: 2}
  - id: 0
    nodeId: 1
    position: {x: 1, y: 1}
  dynamicNodes:
  - id: 0
    nodeId: 3
    position: {x: 3, y: 1}
  - id: 0
    nodeId: 4
    position: {x: 3, y: 2}
  - id: 0
    nodeId: 5
    position: {x: 2, y: 1}
  - id: 0
    nodeId: 6
    position: {x: 1, y: 2}
